# This file uses centimeters as units for non-parametric coordinates.

mtllib bridge_rotate_3.mtl
g default
v 0.498380 -2.000000 -1.001036
v -0.501620 -2.000000 -1.001036
v 0.498380 2.000000 -1.001036
v -0.501620 2.000000 -1.001036
v 0.498380 2.000000 -0.501036
v -0.499527 2.000000 -0.500000
v 0.498380 -2.000000 -0.501036
v -0.499527 -2.000000 -0.500000
v -0.501620 -0.003593 -1.001036
v 0.498380 -0.003593 -1.001036
v 0.498380 -0.003593 -0.501036
v -0.499811 -0.003593 -0.500000
v -0.501620 1.624868 -4.398666
v 0.498380 1.624868 -4.398666
v -0.501620 2.000000 -4.398666
v 0.498380 2.000000 -4.398666
v -0.501620 2.000000 -3.549258
v -0.501620 1.539384 -3.549258
v 0.498380 1.539384 -3.549258
v 0.498380 2.000000 -3.549258
v -0.501620 2.000000 -2.699851
v -0.501620 1.353837 -2.699851
v 0.498380 1.353837 -2.699851
v 0.498380 2.000000 -2.699851
v -0.501620 2.000000 -1.850443
v -0.501620 0.982742 -1.850443
v 0.498380 0.982742 -1.850443
v 0.498380 2.000000 -1.850443
v -0.501620 2.000000 -1.425739
v -0.501620 0.606867 -1.425739
v 0.498380 0.606867 -1.425739
v 0.498380 2.000000 -1.425739
v -0.501620 2.000000 -2.275147
v -0.501620 1.190631 -2.275147
v 0.498380 1.190631 -2.275147
v 0.498380 2.000000 -2.275147
v -0.501620 2.000000 -3.124555
v -0.501620 1.468952 -3.124555
v 0.498380 1.468952 -3.124555
v 0.498380 2.000000 -3.124555
v -0.501620 2.000000 -3.973962
v -0.501620 1.598882 -3.973962
v 0.498380 1.598882 -3.973962
v 0.498380 2.000000 -3.973962
v 0.499044 -2.000000 0.498818
v -0.499200 2.000000 0.499336
v -0.499200 -2.000000 0.499336
v 0.998380 -2.000000 0.498964
v 0.998380 -2.000000 -0.501036
v 0.998380 2.000000 0.498964
v 0.998380 2.000000 -0.501036
v 0.998380 -0.003593 -0.501036
v 0.998380 -0.003593 0.498964
v 0.499708 -0.003593 0.498672
v 4.396010 1.624868 -0.501036
v 4.396010 1.624868 0.498964
v 4.396010 2.000000 -0.501036
v 4.396010 2.000000 0.498964
v 3.546602 2.000000 -0.501036
v 3.546602 1.539384 -0.501036
v 3.546602 1.539384 0.498964
v 3.546602 2.000000 0.498964
v 2.697195 2.000000 -0.501036
v 2.697195 1.353837 -0.501036
v 2.697195 1.353837 0.498964
v 2.697195 2.000000 0.498964
v 1.847787 2.000000 -0.501036
v 1.847787 0.982742 -0.501036
v 1.847787 0.982742 0.498964
v 1.847787 2.000000 0.498964
v 1.423083 2.000000 -0.501036
v 1.423083 0.606867 -0.501036
v 1.423083 0.606867 0.498964
v 1.423083 2.000000 0.498964
v 2.272491 2.000000 -0.501036
v 2.272491 1.190631 -0.501036
v 2.272491 1.190631 0.498964
v 2.272491 2.000000 0.498964
v 3.121899 2.000000 -0.501036
v 3.121899 1.468952 -0.501036
v 3.121899 1.468952 0.498964
v 3.121899 2.000000 0.498964
v 3.971306 2.000000 -0.501036
v 3.971306 1.598882 -0.501036
v 3.971306 1.598882 0.498964
v 3.971306 2.000000 0.498964
v 0.499044 2.000000 0.498818
v 0.499764 -0.003593 0.501037
v 0.499764 -0.003593 0.501037
v 0.499764 -0.003593 0.501037
v 0.499764 -0.003593 0.501037
v -0.998380 -2.000000 -0.498964
v -0.998380 -2.000000 0.501036
v -0.998380 2.000000 -0.498964
v -0.998380 2.000000 0.501036
v -0.998380 -0.003593 0.501036
v -0.998380 -0.003593 -0.498964
v -4.396010 1.624868 0.501036
v -4.396010 1.624868 -0.498964
v -4.396010 2.000000 0.501036
v -4.396010 2.000000 -0.498964
v -3.546602 2.000000 0.501036
v -3.546602 1.539384 0.501036
v -3.546602 1.539384 -0.498964
v -3.546602 2.000000 -0.498964
v -2.697195 2.000000 0.501036
v -2.697195 1.353837 0.501036
v -2.697195 1.353837 -0.498964
v -2.697195 2.000000 -0.498964
v -1.847787 2.000000 0.501036
v -1.847787 0.982742 0.501036
v -1.847787 0.982742 -0.498964
v -1.847787 2.000000 -0.498964
v -1.423083 2.000000 0.501036
v -1.423083 0.606867 0.501036
v -1.423083 0.606867 -0.498964
v -1.423083 2.000000 -0.498964
v -2.272491 2.000000 0.501036
v -2.272491 1.190631 0.501036
v -2.272491 1.190631 -0.498964
v -2.272491 2.000000 -0.498964
v -3.121899 2.000000 0.501036
v -3.121899 1.468952 0.501036
v -3.121899 1.468952 -0.498964
v -3.121899 2.000000 -0.498964
v -3.971306 2.000000 0.501036
v -3.971306 1.598882 0.501036
v -3.971306 1.598882 -0.498964
v -3.971306 2.000000 -0.498964
v -0.498672 -0.003593 0.499708
v -0.498964 -2.000000 0.998380
v 0.501036 -2.000000 0.998380
v -0.498964 2.000000 0.998380
v 0.501036 2.000000 0.998380
v 0.501036 -0.003593 0.998380
v -0.498964 -0.003593 0.998380
v 0.501036 1.624868 4.396010
v -0.498964 1.624868 4.396010
v 0.501036 2.000000 4.396010
v -0.498964 2.000000 4.396010
v 0.501036 2.000000 3.546602
v 0.501036 1.539384 3.546602
v -0.498964 1.539384 3.546602
v -0.498964 2.000000 3.546602
v 0.501036 2.000000 2.697195
v 0.501036 1.353837 2.697195
v -0.498964 1.353837 2.697195
v -0.498964 2.000000 2.697195
v 0.501036 2.000000 1.847787
v 0.501036 0.982742 1.847787
v -0.498964 0.982742 1.847787
v -0.498964 2.000000 1.847787
v 0.501036 2.000000 1.423083
v 0.501036 0.606867 1.423083
v -0.498964 0.606867 1.423083
v -0.498964 2.000000 1.423083
v 0.501036 2.000000 2.272491
v 0.501036 1.190631 2.272491
v -0.498964 1.190631 2.272491
v -0.498964 2.000000 2.272491
v 0.501036 2.000000 3.121899
v 0.501036 1.468952 3.121899
v -0.498964 1.468952 3.121899
v -0.498964 2.000000 3.121899
v 0.501036 2.000000 3.971306
v 0.501036 1.598882 3.971306
v -0.498964 1.598882 3.971306
v -0.498964 2.000000 3.971306
vt 0.375000 0.175665
vt 0.625000 0.175665
vt 0.625000 0.250000
vt 0.375000 0.250000
vt 0.375000 0.000000
vt 0.625000 0.000000
vt 0.625000 0.175665
vt 0.375000 0.175665
vt 0.375000 0.250000
vt 0.625000 0.250000
vt 0.625000 0.500000
vt 0.375000 0.500000
vt 0.375000 0.750000
vt 0.625000 0.750000
vt 0.625000 1.000000
vt 0.375000 1.000000
vt 0.875000 0.000000
vt 0.875000 0.175665
vt 0.125000 0.000000
vt 0.125000 0.175665
vt 0.125000 0.250000
vt 0.875000 0.250000
vt 0.375000 0.175665
vt 0.625000 0.175665
vt 0.625000 0.175665
vt 0.375000 0.175665
vt 0.625000 0.250000
vt 0.625000 0.250000
vt 0.375000 0.250000
vt 0.375000 0.250000
vt 0.625000 0.175665
vt 0.625000 0.250000
vt 0.625000 0.250000
vt 0.625000 0.175665
vt 0.375000 0.175665
vt 0.375000 0.175665
vt 0.375000 0.250000
vt 0.375000 0.250000
vt 0.625000 0.175665
vt 0.625000 0.250000
vt 0.625000 0.250000
vt 0.625000 0.175665
vt 0.375000 0.175665
vt 0.375000 0.175665
vt 0.375000 0.250000
vt 0.375000 0.250000
vt 0.625000 0.175665
vt 0.625000 0.250000
vt 0.625000 0.250000
vt 0.625000 0.175665
vt 0.375000 0.175665
vt 0.375000 0.175665
vt 0.375000 0.250000
vt 0.375000 0.250000
vt 0.000000 0.000000
vt 1.000000 0.000000
vt 1.000000 0.000000
vt 0.000000 0.000000
vt 1.000000 0.499102
vt 0.000000 0.499102
vt 0.000000 0.499102
vt 1.000000 0.499102
vt 0.375000 0.175665
vt 0.625000 0.175665
vt 0.625000 0.250000
vt 0.375000 0.250000
vt 0.375000 0.000000
vt 0.625000 0.000000
vt 0.625000 0.175665
vt 0.375000 0.175665
vt 0.375000 0.250000
vt 0.625000 0.250000
vt 0.625000 0.500000
vt 0.375000 0.500000
vt 0.375000 0.750000
vt 0.625000 0.750000
vt 0.625000 1.000000
vt 0.375000 1.000000
vt 0.875000 0.000000
vt 0.875000 0.175665
vt 0.125000 0.000000
vt 0.125000 0.175665
vt 0.125000 0.250000
vt 0.875000 0.250000
vt 0.375000 0.175665
vt 0.625000 0.175665
vt 0.625000 0.175665
vt 0.375000 0.175665
vt 0.625000 0.250000
vt 0.625000 0.250000
vt 0.375000 0.250000
vt 0.375000 0.250000
vt 0.625000 0.175665
vt 0.625000 0.250000
vt 0.625000 0.250000
vt 0.625000 0.175665
vt 0.375000 0.175665
vt 0.375000 0.175665
vt 0.375000 0.250000
vt 0.375000 0.250000
vt 0.625000 0.175665
vt 0.625000 0.250000
vt 0.625000 0.250000
vt 0.625000 0.175665
vt 0.375000 0.175665
vt 0.375000 0.175665
vt 0.375000 0.250000
vt 0.375000 0.250000
vt 0.625000 0.175665
vt 0.625000 0.250000
vt 0.625000 0.250000
vt 0.625000 0.175665
vt 0.375000 0.175665
vt 0.375000 0.175665
vt 0.375000 0.250000
vt 0.375000 0.250000
vt 1.000000 1.000000
vt 1.000000 1.000000
vt 1.000000 0.000000
vt 1.000000 0.000000
vt 0.375000 0.175665
vt 0.625000 0.175665
vt 0.625000 0.250000
vt 0.375000 0.250000
vt 0.375000 0.000000
vt 0.625000 0.000000
vt 0.625000 0.175665
vt 0.375000 0.175665
vt 0.375000 0.250000
vt 0.625000 0.250000
vt 0.625000 0.500000
vt 0.375000 0.500000
vt 0.375000 0.750000
vt 0.625000 0.750000
vt 0.625000 1.000000
vt 0.375000 1.000000
vt 0.875000 0.000000
vt 0.875000 0.175665
vt 0.125000 0.000000
vt 0.125000 0.175665
vt 0.125000 0.250000
vt 0.875000 0.250000
vt 0.375000 0.175665
vt 0.625000 0.175665
vt 0.625000 0.175665
vt 0.375000 0.175665
vt 0.625000 0.250000
vt 0.625000 0.250000
vt 0.375000 0.250000
vt 0.375000 0.250000
vt 0.625000 0.175665
vt 0.625000 0.250000
vt 0.625000 0.250000
vt 0.625000 0.175665
vt 0.375000 0.175665
vt 0.375000 0.175665
vt 0.375000 0.250000
vt 0.375000 0.250000
vt 0.625000 0.175665
vt 0.625000 0.250000
vt 0.625000 0.250000
vt 0.625000 0.175665
vt 0.375000 0.175665
vt 0.375000 0.175665
vt 0.375000 0.250000
vt 0.375000 0.250000
vt 0.625000 0.175665
vt 0.625000 0.250000
vt 0.625000 0.250000
vt 0.625000 0.175665
vt 0.375000 0.175665
vt 0.375000 0.175665
vt 0.375000 0.250000
vt 0.375000 0.250000
vt 0.375000 0.175665
vt 0.625000 0.175665
vt 0.625000 0.250000
vt 0.375000 0.250000
vt 0.375000 0.000000
vt 0.625000 0.000000
vt 0.625000 0.175665
vt 0.375000 0.175665
vt 0.375000 0.250000
vt 0.625000 0.250000
vt 0.625000 0.500000
vt 0.375000 0.500000
vt 0.375000 0.750000
vt 0.625000 0.750000
vt 0.625000 1.000000
vt 0.375000 1.000000
vt 0.875000 0.000000
vt 0.875000 0.175665
vt 0.125000 0.000000
vt 0.125000 0.175665
vt 0.125000 0.250000
vt 0.875000 0.250000
vt 0.375000 0.175665
vt 0.625000 0.175665
vt 0.625000 0.175665
vt 0.375000 0.175665
vt 0.625000 0.250000
vt 0.625000 0.250000
vt 0.375000 0.250000
vt 0.375000 0.250000
vt 0.625000 0.175665
vt 0.625000 0.250000
vt 0.625000 0.250000
vt 0.625000 0.175665
vt 0.375000 0.175665
vt 0.375000 0.175665
vt 0.375000 0.250000
vt 0.375000 0.250000
vt 0.625000 0.175665
vt 0.625000 0.250000
vt 0.625000 0.250000
vt 0.625000 0.175665
vt 0.375000 0.175665
vt 0.375000 0.175665
vt 0.375000 0.250000
vt 0.375000 0.250000
vt 0.625000 0.175665
vt 0.625000 0.250000
vt 0.625000 0.250000
vt 0.625000 0.175665
vt 0.375000 0.175665
vt 0.375000 0.175665
vt 0.375000 0.250000
vt 0.375000 0.250000
vn 0.000000 0.000000 -1.000000
vn 0.000000 0.000000 -1.000000
vn 0.000000 0.000000 -1.000000
vn 0.000000 0.000000 -1.000000
vn 0.000000 0.000000 -1.000000
vn 0.000000 0.000000 -1.000000
vn 0.000000 0.000000 -1.000000
vn 0.000000 0.000000 -1.000000
vn 0.000000 1.000000 0.000000
vn 0.000000 1.000000 0.000000
vn 0.000000 1.000000 0.000000
vn 0.000000 1.000000 0.000000
vn 0.000000 -1.000000 0.000000
vn 0.000000 -1.000000 0.000000
vn 0.000000 -1.000000 0.000000
vn 0.000000 -1.000000 0.000000
vn -0.999992 -0.000071 0.003895
vn -0.999992 -0.000071 0.003895
vn -0.999992 -0.000071 0.003895
vn -0.999992 -0.000071 0.003895
vn 1.000000 0.000000 0.000000
vn 1.000000 0.000000 0.000000
vn 1.000000 0.000000 0.000000
vn 1.000000 0.000000 0.000000
vn 1.000000 0.000000 0.000000
vn 1.000000 0.000000 0.000000
vn 1.000000 0.000000 0.000000
vn 1.000000 0.000000 0.000000
vn -0.999992 0.000071 0.003895
vn -0.999992 0.000071 0.003895
vn -0.999992 0.000071 0.003895
vn -0.999992 0.000071 0.003895
vn 0.000000 -0.571097 -0.820883
vn 0.000000 -0.571097 -0.820883
vn 0.000000 -0.652551 -0.757745
vn 0.000000 -0.652551 -0.757745
vn -1.000000 0.000000 0.000000
vn -1.000000 0.000000 0.000000
vn -1.000000 0.000000 0.000000
vn -1.000000 0.000000 0.000000
vn 0.000000 1.000000 0.000000
vn 0.000000 1.000000 0.000000
vn 0.000000 1.000000 0.000000
vn 0.000000 1.000000 0.000000
vn 1.000000 0.000000 0.000000
vn 1.000000 0.000000 0.000000
vn 1.000000 0.000000 0.000000
vn 1.000000 0.000000 0.000000
vn -1.000000 0.000000 0.000000
vn -1.000000 0.000000 0.000000
vn -1.000000 0.000000 0.000000
vn -1.000000 0.000000 0.000000
vn 0.000000 -0.988502 -0.151207
vn 0.000000 -0.988502 -0.151207
vn 0.000000 -0.994974 -0.100134
vn 0.000000 -0.994974 -0.100134
vn 1.000000 0.000000 0.000000
vn 1.000000 0.000000 0.000000
vn 1.000000 0.000000 0.000000
vn 1.000000 0.000000 0.000000
vn 0.000000 1.000000 0.000000
vn 0.000000 1.000000 0.000000
vn 0.000000 1.000000 0.000000
vn 0.000000 1.000000 0.000000
vn -1.000000 0.000000 0.000000
vn -1.000000 0.000000 0.000000
vn -1.000000 0.000000 0.000000
vn -1.000000 0.000000 0.000000
vn 0.000000 -0.950287 -0.311375
vn 0.000000 -0.950287 -0.311375
vn 0.000000 -0.976963 -0.213411
vn 0.000000 -0.976963 -0.213411
vn 1.000000 0.000000 0.000000
vn 1.000000 0.000000 0.000000
vn 1.000000 0.000000 0.000000
vn 1.000000 0.000000 0.000000
vn 0.000000 1.000000 0.000000
vn 0.000000 1.000000 0.000000
vn 0.000000 1.000000 0.000000
vn 0.000000 1.000000 0.000000
vn -1.000000 0.000000 0.000000
vn -1.000000 0.000000 0.000000
vn -1.000000 0.000000 0.000000
vn -1.000000 0.000000 0.000000
vn 0.000000 -0.824134 -0.566395
vn 0.000000 -0.824134 -0.566395
vn 0.000000 -0.916364 -0.400347
vn 0.000000 -0.916364 -0.400347
vn 1.000000 0.000000 0.000000
vn 1.000000 0.000000 0.000000
vn 1.000000 0.000000 0.000000
vn 1.000000 0.000000 0.000000
vn 0.000000 1.000000 0.000000
vn 0.000000 1.000000 0.000000
vn 0.000000 1.000000 0.000000
vn 0.000000 1.000000 0.000000
vn -1.000000 0.000000 0.000000
vn -1.000000 0.000000 0.000000
vn 0.000000 -0.998133 -0.061072
vn 0.000000 -0.998133 -0.061072
vn 1.000000 0.000000 0.000000
vn 1.000000 0.000000 0.000000
vn 0.000000 1.000000 0.000000
vn 0.000000 1.000000 0.000000
vn 0.000000 1.000000 0.000000
vn 0.000000 1.000000 0.000000
vn 0.000000 1.000000 0.000000
vn 0.000000 1.000000 0.000000
vn 0.000000 -1.000000 0.000000
vn 0.000000 -1.000000 0.000000
vn 0.000000 -1.000000 0.000000
vn 0.000000 -1.000000 0.000000
vn 1.000000 0.000000 0.000000
vn 1.000000 0.000000 0.000000
vn 1.000000 0.000000 0.000000
vn 1.000000 0.000000 0.000000
vn 1.000000 0.000000 0.000000
vn 1.000000 0.000000 0.000000
vn 1.000000 0.000000 0.000000
vn 1.000000 0.000000 0.000000
vn 0.000000 1.000000 0.000000
vn 0.000000 1.000000 0.000000
vn 0.000000 1.000000 0.000000
vn 0.000000 1.000000 0.000000
vn 0.000000 -1.000000 0.000000
vn 0.000000 -1.000000 0.000000
vn 0.000000 -1.000000 0.000000
vn 0.000000 -1.000000 0.000000
vn 0.000000 0.000000 -1.000000
vn 0.000000 0.000000 -1.000000
vn 0.000000 0.000000 -1.000000
vn 0.000000 0.000000 -1.000000
vn -0.000439 0.000037 1.000000
vn -0.000439 0.000037 1.000000
vn -0.000439 0.000037 1.000000
vn -0.000439 0.000037 1.000000
vn -0.000439 -0.000037 1.000000
vn -0.000439 -0.000037 1.000000
vn -0.000439 -0.000037 1.000000
vn -0.000439 -0.000037 1.000000
vn 0.000000 0.000000 -1.000000
vn 0.000000 0.000000 -1.000000
vn 0.000000 0.000000 -1.000000
vn 0.000000 0.000000 -1.000000
vn 0.820883 -0.571097 0.000000
vn 0.820883 -0.571097 0.000000
vn 0.757745 -0.652551 0.000000
vn 0.757745 -0.652551 0.000000
vn 0.000000 0.000000 -1.000000
vn 0.000000 0.000000 -1.000000
vn -0.000000 0.000000 -1.000000
vn 0.000000 0.000000 -1.000000
vn 0.000000 1.000000 0.000000
vn 0.000000 1.000000 0.000000
vn 0.000000 1.000000 0.000000
vn 0.000000 1.000000 0.000000
vn 0.000000 0.000000 1.000000
vn 0.000000 0.000000 1.000000
vn 0.000000 0.000000 1.000000
vn 0.000000 0.000000 1.000000
vn 0.000000 0.000000 -1.000000
vn 0.000000 0.000000 -1.000000
vn 0.000000 0.000000 -1.000000
vn 0.000000 0.000000 -1.000000
vn 0.151207 -0.988502 0.000000
vn 0.151207 -0.988502 0.000000
vn 0.100134 -0.994974 0.000000
vn 0.100134 -0.994974 0.000000
vn -0.000000 0.000000 1.000000
vn -0.000000 0.000000 1.000000
vn -0.000000 0.000000 1.000000
vn -0.000000 0.000000 1.000000
vn 0.000000 1.000000 0.000000
vn 0.000000 1.000000 0.000000
vn 0.000000 1.000000 0.000000
vn 0.000000 1.000000 0.000000
vn -0.000000 0.000000 -1.000000
vn -0.000000 0.000000 -1.000000
vn -0.000000 0.000000 -1.000000
vn -0.000000 0.000000 -1.000000
vn 0.311375 -0.950287 0.000000
vn 0.311375 -0.950287 0.000000
vn 0.213411 -0.976963 0.000000
vn 0.213411 -0.976963 0.000000
vn 0.000000 0.000000 1.000000
vn 0.000000 0.000000 1.000000
vn 0.000000 0.000000 1.000000
vn 0.000000 0.000000 1.000000
vn 0.000000 1.000000 0.000000
vn 0.000000 1.000000 0.000000
vn 0.000000 1.000000 0.000000
vn 0.000000 1.000000 0.000000
vn -0.000000 0.000000 -1.000000
vn -0.000000 0.000000 -1.000000
vn 0.000000 0.000000 -1.000000
vn 0.000000 0.000000 -1.000000
vn 0.566395 -0.824134 0.000000
vn 0.566395 -0.824134 0.000000
vn 0.400346 -0.916364 0.000000
vn 0.400346 -0.916364 0.000000
vn -0.000000 0.000000 1.000000
vn -0.000000 0.000000 1.000000
vn -0.000000 0.000000 1.000000
vn -0.000000 0.000000 1.000000
vn 0.000000 1.000000 0.000000
vn 0.000000 1.000000 0.000000
vn 0.000000 1.000000 0.000000
vn 0.000000 1.000000 0.000000
vn -0.000000 0.000000 -1.000000
vn -0.000000 0.000000 -1.000000
vn 0.061072 -0.998133 0.000000
vn 0.061072 -0.998133 0.000000
vn 0.000000 0.000000 1.000000
vn 0.000000 0.000000 1.000000
vn 0.000000 1.000000 0.000000
vn 0.000000 1.000000 0.000000
vn 0.000000 0.000000 0.000000
vn 0.000000 0.000000 0.000000
vn 0.000000 0.000000 0.000000
vn 0.000000 0.000000 0.000000
vn -1.000000 0.000000 0.000000
vn -1.000000 0.000000 0.000000
vn -1.000000 0.000000 0.000000
vn -1.000000 0.000000 0.000000
vn -1.000000 0.000000 0.000000
vn -1.000000 0.000000 0.000000
vn -1.000000 0.000000 0.000000
vn -1.000000 0.000000 0.000000
vn 0.000000 1.000000 0.000000
vn 0.000000 1.000000 0.000000
vn 0.000000 1.000000 0.000000
vn 0.000000 1.000000 0.000000
vn 0.000000 -1.000000 0.000000
vn 0.000000 -1.000000 0.000000
vn 0.000000 -1.000000 0.000000
vn 0.000000 -1.000000 0.000000
vn 0.003031 -0.000093 0.999995
vn 0.003031 -0.000093 0.999995
vn 0.003031 -0.000093 0.999995
vn 0.003031 -0.000093 0.999995
vn -0.002077 -0.000000 -0.999998
vn -0.002077 -0.000000 -0.999998
vn -0.002077 -0.000000 -0.999998
vn -0.002077 -0.000000 -0.999998
vn -0.002077 0.000000 -0.999998
vn -0.002077 0.000000 -0.999998
vn -0.002077 0.000000 -0.999998
vn -0.002077 0.000000 -0.999998
vn 0.003031 0.000093 0.999995
vn 0.003031 0.000093 0.999995
vn 0.003031 0.000093 0.999995
vn 0.003031 0.000093 0.999995
vn -0.820883 -0.571097 0.000000
vn -0.820883 -0.571097 0.000000
vn -0.757745 -0.652551 0.000000
vn -0.757745 -0.652551 0.000000
vn -0.000000 0.000000 1.000000
vn -0.000000 0.000000 1.000000
vn 0.000000 0.000000 1.000000
vn -0.000000 0.000000 1.000000
vn 0.000000 1.000000 0.000000
vn 0.000000 1.000000 0.000000
vn 0.000000 1.000000 0.000000
vn 0.000000 1.000000 0.000000
vn -0.000000 0.000000 -1.000000
vn -0.000000 0.000000 -1.000000
vn -0.000000 0.000000 -1.000000
vn -0.000000 0.000000 -1.000000
vn -0.000000 0.000000 1.000000
vn -0.000000 0.000000 1.000000
vn -0.000000 0.000000 1.000000
vn -0.000000 0.000000 1.000000
vn -0.151207 -0.988502 0.000000
vn -0.151207 -0.988502 0.000000
vn -0.100134 -0.994974 0.000000
vn -0.100134 -0.994974 0.000000
vn 0.000000 0.000000 -1.000000
vn 0.000000 0.000000 -1.000000
vn 0.000000 0.000000 -1.000000
vn 0.000000 0.000000 -1.000000
vn 0.000000 1.000000 0.000000
vn 0.000000 1.000000 0.000000
vn 0.000000 1.000000 0.000000
vn 0.000000 1.000000 0.000000
vn 0.000000 0.000000 1.000000
vn 0.000000 0.000000 1.000000
vn 0.000000 0.000000 1.000000
vn 0.000000 0.000000 1.000000
vn -0.311375 -0.950287 0.000000
vn -0.311375 -0.950287 0.000000
vn -0.213411 -0.976963 0.000000
vn -0.213411 -0.976963 0.000000
vn -0.000000 0.000000 -1.000000
vn -0.000000 0.000000 -1.000000
vn -0.000000 0.000000 -1.000000
vn -0.000000 0.000000 -1.000000
vn 0.000000 1.000000 0.000000
vn 0.000000 1.000000 0.000000
vn 0.000000 1.000000 0.000000
vn 0.000000 1.000000 0.000000
vn 0.000000 0.000000 1.000000
vn 0.000000 0.000000 1.000000
vn -0.000000 0.000000 1.000000
vn -0.000000 0.000000 1.000000
vn -0.566395 -0.824134 0.000000
vn -0.566395 -0.824134 0.000000
vn -0.400346 -0.916364 0.000000
vn -0.400346 -0.916364 0.000000
vn 0.000000 0.000000 -1.000000
vn 0.000000 0.000000 -1.000000
vn 0.000000 0.000000 -1.000000
vn 0.000000 0.000000 -1.000000
vn 0.000000 1.000000 0.000000
vn 0.000000 1.000000 0.000000
vn 0.000000 1.000000 0.000000
vn 0.000000 1.000000 0.000000
vn 0.000000 0.000000 1.000000
vn 0.000000 0.000000 1.000000
vn -0.061072 -0.998133 0.000000
vn -0.061072 -0.998133 0.000000
vn 0.000000 0.000000 -1.000000
vn 0.000000 0.000000 -1.000000
vn 0.000000 1.000000 0.000000
vn 0.000000 1.000000 0.000000
vn 0.000000 0.000000 1.000000
vn 0.000000 0.000000 1.000000
vn 0.000000 0.000000 1.000000
vn 0.000000 0.000000 1.000000
vn 0.000000 0.000000 1.000000
vn 0.000000 0.000000 1.000000
vn 0.000000 0.000000 1.000000
vn 0.000000 0.000000 1.000000
vn 0.000000 1.000000 0.000000
vn 0.000000 1.000000 0.000000
vn 0.000000 1.000000 0.000000
vn 0.000000 1.000000 0.000000
vn 0.000000 -1.000000 -0.000000
vn 0.000000 -1.000000 -0.000000
vn 0.000000 -1.000000 -0.000000
vn 0.000000 -1.000000 -0.000000
vn 0.999995 -0.000166 -0.003322
vn 0.999995 -0.000166 -0.003322
vn 0.999995 -0.000166 -0.003322
vn 0.999995 -0.000166 -0.003322
vn -1.000000 0.000132 -0.000057
vn -1.000000 0.000132 -0.000057
vn -1.000000 0.000132 -0.000057
vn -1.000000 0.000132 -0.000057
vn -1.000000 -0.000132 -0.000057
vn -1.000000 -0.000132 -0.000057
vn -1.000000 -0.000132 -0.000057
vn -1.000000 -0.000132 -0.000057
vn 0.999995 0.000166 -0.003322
vn 0.999995 0.000166 -0.003322
vn 0.999995 0.000166 -0.003322
vn 0.999995 0.000166 -0.003322
vn 0.000000 -0.571097 0.820883
vn 0.000000 -0.571097 0.820883
vn 0.000000 -0.652551 0.757745
vn 0.000000 -0.652551 0.757745
vn 1.000000 0.000000 0.000000
vn 1.000000 0.000000 0.000000
vn 1.000000 0.000000 0.000000
vn 1.000000 0.000000 0.000000
vn 0.000000 1.000000 0.000000
vn 0.000000 1.000000 0.000000
vn 0.000000 1.000000 0.000000
vn 0.000000 1.000000 0.000000
vn -1.000000 0.000000 0.000000
vn -1.000000 0.000000 0.000000
vn -1.000000 0.000000 0.000000
vn -1.000000 0.000000 0.000000
vn 1.000000 0.000000 0.000000
vn 1.000000 0.000000 0.000000
vn 1.000000 0.000000 0.000000
vn 1.000000 0.000000 0.000000
vn 0.000000 -0.988502 0.151207
vn 0.000000 -0.988502 0.151207
vn 0.000000 -0.994974 0.100134
vn 0.000000 -0.994974 0.100134
vn -1.000000 0.000000 0.000000
vn -1.000000 0.000000 0.000000
vn -1.000000 0.000000 0.000000
vn -1.000000 0.000000 0.000000
vn 0.000000 1.000000 0.000000
vn 0.000000 1.000000 0.000000
vn 0.000000 1.000000 0.000000
vn 0.000000 1.000000 0.000000
vn 1.000000 0.000000 0.000000
vn 1.000000 0.000000 0.000000
vn 1.000000 0.000000 0.000000
vn 1.000000 0.000000 0.000000
vn 0.000000 -0.950287 0.311375
vn 0.000000 -0.950287 0.311375
vn 0.000000 -0.976963 0.213411
vn 0.000000 -0.976963 0.213411
vn -1.000000 0.000000 0.000000
vn -1.000000 0.000000 0.000000
vn -1.000000 0.000000 0.000000
vn -1.000000 0.000000 0.000000
vn 0.000000 1.000000 0.000000
vn 0.000000 1.000000 0.000000
vn 0.000000 1.000000 0.000000
vn 0.000000 1.000000 0.000000
vn 1.000000 0.000000 0.000000
vn 1.000000 0.000000 0.000000
vn 1.000000 0.000000 0.000000
vn 1.000000 0.000000 0.000000
vn 0.000000 -0.824134 0.566395
vn 0.000000 -0.824134 0.566395
vn 0.000000 -0.916364 0.400346
vn 0.000000 -0.916364 0.400346
vn -1.000000 0.000000 0.000000
vn -1.000000 0.000000 0.000000
vn -1.000000 0.000000 0.000000
vn -1.000000 0.000000 0.000000
vn 0.000000 1.000000 0.000000
vn 0.000000 1.000000 0.000000
vn 0.000000 1.000000 0.000000
vn 0.000000 1.000000 0.000000
vn 1.000000 0.000000 0.000000
vn 1.000000 0.000000 0.000000
vn 0.000000 -0.998133 0.061072
vn 0.000000 -0.998133 0.061072
vn -1.000000 0.000000 0.000000
vn -1.000000 0.000000 0.000000
vn 0.000000 1.000000 0.000000
vn 0.000000 1.000000 0.000000
s off
g polySurface1
usemtl initialShadingGroup
f 14/1/1 13/2/2 15/3/3 16/4/4
f 1/5/5 2/6/6 9/7/7 10/8/8
f 3/9/9 4/10/10 6/11/11 5/12/12
f 7/13/13 8/14/14 2/15/15 1/16/16
f 2/6/17 8/17/18 12/18/19 9/7/20
f 7/19/21 1/5/22 10/8/23 11/20/24
f 11/20/25 10/8/26 3/9/27 5/21/28
f 9/7/29 12/18/30 6/22/31 4/10/32
s 1
f 10/23/33 9/24/34 30/25/35 31/26/36
s 2
f 9/24/37 4/27/38 29/28/39 30/25/40
s 3
f 4/27/41 3/29/42 32/30/43 29/28/44
s 4
f 3/29/45 10/23/46 31/26/47 32/30/48
s 2
f 18/31/49 17/32/50 41/33/51 42/34/52
s 1
f 19/35/53 18/31/54 42/34/55 43/36/56
s 4
f 20/37/57 19/35/58 43/36/59 44/38/60
s 3
f 17/32/61 20/37/62 44/38/63 41/33/64
s 2
f 22/39/65 21/40/66 37/41/67 38/42/68
s 1
f 23/43/69 22/39/70 38/42/71 39/44/72
s 4
f 24/45/73 23/43/74 39/44/75 40/46/76
s 3
f 21/40/77 24/45/78 40/46/79 37/41/80
s 2
f 26/47/81 25/48/82 33/49/83 34/50/84
s 1
f 27/51/85 26/47/86 34/50/87 35/52/88
s 4
f 28/53/89 27/51/90 35/52/91 36/54/92
s 3
f 25/48/93 28/53/94 36/54/95 33/49/96
s 2
f 30/25/40 29/28/39 25/48/82 26/47/81
s 1
f 31/26/36 30/25/35 26/47/86 27/51/85
s 4
f 32/30/48 31/26/47 27/51/90 28/53/89
s 3
f 29/28/44 32/30/43 28/53/94 25/48/93
s 2
f 34/50/84 33/49/83 21/40/66 22/39/65
s 1
f 35/52/88 34/50/87 22/39/70 23/43/69
s 4
f 36/54/92 35/52/91 23/43/74 24/45/73
s 3
f 33/49/96 36/54/95 24/45/78 21/40/77
s 2
f 38/42/68 37/41/67 17/32/50 18/31/49
s 1
f 39/44/72 38/42/71 18/31/54 19/35/53
s 4
f 40/46/76 39/44/75 19/35/58 20/37/57
s 3
f 37/41/80 40/46/79 20/37/62 17/32/61
s 2
f 42/34/52 41/33/51 15/3/97 13/2/98
s 1
f 43/36/56 42/34/55 13/2/99 14/1/100
s 4
f 44/38/60 43/36/59 14/1/101 16/4/102
s 3
f 41/33/64 44/38/63 16/4/103 15/3/104
s off
f 87/55/105 5/56/106 6/57/107 46/58/108
f 7/59/109 45/60/110 47/61/111 8/62/112
f 56/63/113 55/64/114 57/65/115 58/66/116
f 48/67/117 49/68/118 52/69/119 53/70/120
f 50/71/121 51/72/122 5/73/123 87/74/124
f 45/75/125 7/76/126 49/77/127 48/78/128
f 49/68/129 7/79/130 11/80/131 52/69/132
f 45/81/133 48/67/134 53/70/135 54/82/136
f 54/82/137 53/70/138 50/71/139 87/83/140
f 52/69/141 11/80/142 5/84/143 51/72/144
s 13
f 53/85/145 52/86/146 72/87/147 73/88/148
s 14
f 52/86/149 51/89/150 71/90/151 72/87/152
s 15
f 51/89/153 50/91/154 74/92/155 71/90/156
s 16
f 50/91/157 53/85/158 73/88/159 74/92/160
s 14
f 60/93/161 59/94/162 83/95/163 84/96/164
s 13
f 61/97/165 60/93/166 84/96/167 85/98/168
s 16
f 62/99/169 61/97/170 85/98/171 86/100/172
s 15
f 59/94/173 62/99/174 86/100/175 83/95/176
s 14
f 64/101/177 63/102/178 79/103/179 80/104/180
s 13
f 65/105/181 64/101/182 80/104/183 81/106/184
s 16
f 66/107/185 65/105/186 81/106/187 82/108/188
s 15
f 63/102/189 66/107/190 82/108/191 79/103/192
s 14
f 68/109/193 67/110/194 75/111/195 76/112/196
s 13
f 69/113/197 68/109/198 76/112/199 77/114/200
s 16
f 70/115/201 69/113/202 77/114/203 78/116/204
s 15
f 67/110/205 70/115/206 78/116/207 75/111/208
s 14
f 72/87/152 71/90/151 67/110/194 68/109/193
s 13
f 73/88/148 72/87/147 68/109/198 69/113/197
s 16
f 74/92/160 73/88/159 69/113/202 70/115/201
s 15
f 71/90/156 74/92/155 70/115/206 67/110/205
s 14
f 76/112/196 75/111/195 63/102/178 64/101/177
s 13
f 77/114/200 76/112/199 64/101/182 65/105/181
s 16
f 78/116/204 77/114/203 65/105/186 66/107/185
s 15
f 75/111/208 78/116/207 66/107/190 63/102/189
s 14
f 80/104/180 79/103/179 59/94/162 60/93/161
s 13
f 81/106/184 80/104/183 60/93/166 61/97/165
s 16
f 82/108/188 81/106/187 61/97/170 62/99/169
s 15
f 79/103/192 82/108/191 62/99/174 59/94/173
s 14
f 84/96/164 83/95/163 57/65/209 55/64/210
s 13
f 85/98/168 84/96/167 55/64/211 56/63/212
s 16
f 86/100/172 85/98/171 56/63/213 58/66/214
s 15
f 83/95/176 86/100/175 58/66/215 57/65/216
s off
f 91/117/217 89/118/218 88/119/219 90/120/220
f 99/121/221 98/122/222 100/123/223 101/124/224
f 92/125/225 93/126/226 96/127/227 97/128/228
f 94/129/229 95/130/230 46/131/231 6/132/232
f 8/133/233 47/134/234 93/135/235 92/136/236
f 93/126/237 47/137/238 130/138/239 96/127/240
f 8/139/241 92/125/242 97/128/243 12/140/244
f 12/140/245 97/128/246 94/129/247 6/141/248
f 96/127/249 130/138/250 46/142/251 95/130/252
s 25
f 97/143/253 96/144/254 115/145/255 116/146/256
s 26
f 96/144/257 95/147/258 114/148/259 115/145/260
s 27
f 95/147/261 94/149/262 117/150/263 114/148/264
s 28
f 94/149/265 97/143/266 116/146/267 117/150/268
s 26
f 103/151/269 102/152/270 126/153/271 127/154/272
s 25
f 104/155/273 103/151/274 127/154/275 128/156/276
s 28
f 105/157/277 104/155/278 128/156/279 129/158/280
s 27
f 102/152/281 105/157/282 129/158/283 126/153/284
s 26
f 107/159/285 106/160/286 122/161/287 123/162/288
s 25
f 108/163/289 107/159/290 123/162/291 124/164/292
s 28
f 109/165/293 108/163/294 124/164/295 125/166/296
s 27
f 106/160/297 109/165/298 125/166/299 122/161/300
s 26
f 111/167/301 110/168/302 118/169/303 119/170/304
s 25
f 112/171/305 111/167/306 119/170/307 120/172/308
s 28
f 113/173/309 112/171/310 120/172/311 121/174/312
s 27
f 110/168/313 113/173/314 121/174/315 118/169/316
s 26
f 115/145/260 114/148/259 110/168/302 111/167/301
s 25
f 116/146/256 115/145/255 111/167/306 112/171/305
s 28
f 117/150/268 116/146/267 112/171/310 113/173/309
s 27
f 114/148/264 117/150/263 113/173/314 110/168/313
s 26
f 119/170/304 118/169/303 106/160/286 107/159/285
s 25
f 120/172/308 119/170/307 107/159/290 108/163/289
s 28
f 121/174/312 120/172/311 108/163/294 109/165/293
s 27
f 118/169/316 121/174/315 109/165/298 106/160/297
s 26
f 123/162/288 122/161/287 102/152/270 103/151/269
s 25
f 124/164/292 123/162/291 103/151/274 104/155/273
s 28
f 125/166/296 124/164/295 104/155/278 105/157/277
s 27
f 122/161/300 125/166/299 105/157/282 102/152/281
s 26
f 127/154/272 126/153/271 100/123/317 98/122/318
s 25
f 128/156/276 127/154/275 98/122/319 99/121/320
s 28
f 129/158/280 128/156/279 99/121/321 101/124/322
s 27
f 126/153/284 129/158/283 101/124/323 100/123/324
s off
f 138/175/325 137/176/326 139/177/327 140/178/328
f 131/179/329 132/180/330 135/181/331 136/182/332
f 133/183/333 134/184/334 87/185/335 46/186/336
f 47/187/337 45/188/338 132/189/339 131/190/340
f 132/180/341 45/191/342 54/192/343 135/181/344
f 47/193/345 131/179/346 136/182/347 130/194/348
f 130/194/349 136/182/350 133/183/351 46/195/352
f 135/181/353 54/192/354 87/196/355 134/184/356
s 37
f 136/197/357 135/198/358 154/199/359 155/200/360
s 38
f 135/198/361 134/201/362 153/202/363 154/199/364
s 39
f 134/201/365 133/203/366 156/204/367 153/202/368
s 40
f 133/203/369 136/197/370 155/200/371 156/204/372
s 38
f 142/205/373 141/206/374 165/207/375 166/208/376
s 37
f 143/209/377 142/205/378 166/208/379 167/210/380
s 40
f 144/211/381 143/209/382 167/210/383 168/212/384
s 39
f 141/206/385 144/211/386 168/212/387 165/207/388
s 38
f 146/213/389 145/214/390 161/215/391 162/216/392
s 37
f 147/217/393 146/213/394 162/216/395 163/218/396
s 40
f 148/219/397 147/217/398 163/218/399 164/220/400
s 39
f 145/214/401 148/219/402 164/220/403 161/215/404
s 38
f 150/221/405 149/222/406 157/223/407 158/224/408
s 37
f 151/225/409 150/221/410 158/224/411 159/226/412
s 40
f 152/227/413 151/225/414 159/226/415 160/228/416
s 39
f 149/222/417 152/227/418 160/228/419 157/223/420
s 38
f 154/199/364 153/202/363 149/222/406 150/221/405
s 37
f 155/200/360 154/199/359 150/221/410 151/225/409
s 40
f 156/204/372 155/200/371 151/225/414 152/227/413
s 39
f 153/202/368 156/204/367 152/227/418 149/222/417
s 38
f 158/224/408 157/223/407 145/214/390 146/213/389
s 37
f 159/226/412 158/224/411 146/213/394 147/217/393
s 40
f 160/228/416 159/226/415 147/217/398 148/219/397
s 39
f 157/223/420 160/228/419 148/219/402 145/214/401
s 38
f 162/216/392 161/215/391 141/206/374 142/205/373
s 37
f 163/218/396 162/216/395 142/205/378 143/209/377
s 40
f 164/220/400 163/218/399 143/209/382 144/211/381
s 39
f 161/215/404 164/220/403 144/211/386 141/206/385
s 38
f 166/208/376 165/207/375 139/177/421 137/176/422
s 37
f 167/210/380 166/208/379 137/176/423 138/175/424
s 40
f 168/212/384 167/210/383 138/175/425 140/178/426
s 39
f 165/207/388 168/212/387 140/178/427 139/177/428
