# This file uses centimeters as units for non-parametric coordinates.

mtllib bridge_1.mtl
g default
v -0.502801 -2.000000 0.247901
v 0.497199 -2.000000 0.247901
v -0.502801 2.000000 0.247901
v 0.497199 2.000000 0.247901
v -0.502801 2.000000 -0.252099
v 0.496253 2.000000 -0.252099
v -0.502801 -2.000000 -0.252099
v 0.496253 -2.000000 -0.252099
v 0.497199 -0.003593 0.247901
v -0.502801 -0.003593 0.247901
v -0.502801 -0.003593 -0.252099
v 0.496820 -0.003593 -0.252099
v 0.497199 1.624868 3.645532
v -0.502801 1.624868 3.645532
v 0.497199 2.000000 3.645532
v -0.502801 2.000000 3.645532
v 0.497199 2.000000 2.796124
v 0.497199 1.539384 2.796124
v -0.502801 1.539384 2.796124
v -0.502801 2.000000 2.796124
v 0.497199 2.000000 1.946716
v 0.497199 1.353837 1.946716
v -0.502801 1.353837 1.946716
v -0.502801 2.000000 1.946716
v 0.497199 2.000000 1.097309
v 0.497199 0.982742 1.097309
v -0.502801 0.982742 1.097309
v -0.502801 2.000000 1.097309
v 0.497199 2.000000 0.672605
v 0.497199 0.606867 0.672605
v -0.502801 0.606867 0.672605
v -0.502801 2.000000 0.672605
v 0.497199 2.000000 1.522012
v 0.497199 1.190631 1.522012
v -0.502801 1.190631 1.522012
v -0.502801 2.000000 1.522012
v 0.497199 2.000000 2.371420
v 0.497199 1.468952 2.371420
v -0.502801 1.468952 2.371420
v -0.502801 2.000000 2.371420
v 0.497199 2.000000 3.220828
v 0.497199 1.598882 3.220828
v -0.502801 1.598882 3.220828
v -0.502801 2.000000 3.220828
vt 0.375000 0.250000
vt 0.625000 0.250000
vt 0.625000 0.175665
vt 0.375000 0.175665
vt 0.375000 0.000000
vt 0.625000 0.000000
vt 0.625000 0.175665
vt 0.375000 0.175665
vt 0.375000 0.250000
vt 0.625000 0.250000
vt 0.625000 0.500000
vt 0.375000 0.500000
vt 0.625000 0.750000
vt 0.375000 0.750000
vt 0.625000 1.000000
vt 0.375000 1.000000
vt 0.875000 0.000000
vt 0.875000 0.175665
vt 0.125000 0.000000
vt 0.125000 0.175665
vt 0.125000 0.250000
vt 0.875000 0.250000
vt 0.375000 0.175665
vt 0.625000 0.175665
vt 0.625000 0.250000
vt 0.375000 0.250000
vt 0.625000 0.250000
vt 0.625000 0.175665
vt 0.375000 0.175665
vt 0.375000 0.250000
vt 0.625000 0.250000
vt 0.625000 0.175665
vt 0.375000 0.175665
vt 0.375000 0.250000
vt 0.625000 0.250000
vt 0.625000 0.175665
vt 0.375000 0.175665
vt 0.375000 0.250000
vt 0.625000 0.250000
vt 0.625000 0.175665
vt 0.375000 0.175665
vt 0.375000 0.250000
vt 0.625000 0.250000
vt 0.625000 0.175665
vt 0.375000 0.175665
vt 0.375000 0.250000
vt 0.625000 0.250000
vt 0.625000 0.175665
vt 0.375000 0.175665
vt 0.375000 0.250000
vt 0.625000 0.250000
vt 0.625000 0.175665
vt 0.375000 0.175665
vt 0.375000 0.250000
vt 0.000000 0.000000
vt 0.999858 0.000000
vt 1.000000 0.500355
vt 0.000142 0.500639
vt 0.000141 0.000000
vt 1.000000 0.000000
vt 0.999859 0.498844
vt 0.000000 0.498561
vn 0.000000 0.000000 1.000000
vn 0.000000 0.000000 1.000000
vn 0.000000 0.000000 1.000000
vn 0.000000 0.000000 1.000000
vn 0.000000 0.000000 1.000000
vn 0.000000 0.000000 1.000000
vn 0.000000 0.000000 1.000000
vn 0.000000 0.000000 1.000000
vn 0.000000 1.000000 0.000000
vn 0.000000 1.000000 0.000000
vn 0.000000 1.000000 0.000000
vn 0.000000 1.000000 0.000000
vn 0.000000 -1.000000 0.000000
vn 0.000000 -1.000000 0.000000
vn 0.000000 -1.000000 0.000000
vn 0.000000 -1.000000 0.000000
vn 0.999999 -0.000142 -0.001325
vn 0.999999 -0.000142 -0.001325
vn 0.999999 -0.000142 -0.001325
vn 0.999999 -0.000142 -0.001325
vn -1.000000 0.000000 0.000000
vn -1.000000 0.000000 0.000000
vn -1.000000 0.000000 0.000000
vn -1.000000 0.000000 0.000000
vn -1.000000 0.000000 0.000000
vn -1.000000 0.000000 0.000000
vn -1.000000 0.000000 0.000000
vn -1.000000 0.000000 0.000000
vn 0.999999 0.000142 -0.001325
vn 0.999999 0.000142 -0.001325
vn 0.999999 0.000142 -0.001325
vn 0.999999 0.000142 -0.001325
vn 0.000000 -0.571097 0.820882
vn 0.000000 -0.571097 0.820882
vn 0.000000 -0.652551 0.757745
vn 0.000000 -0.652551 0.757745
vn 1.000000 0.000000 0.000000
vn 1.000000 0.000000 0.000000
vn 1.000000 0.000000 0.000000
vn 1.000000 0.000000 0.000000
vn 0.000000 1.000000 0.000000
vn 0.000000 1.000000 0.000000
vn 0.000000 1.000000 0.000000
vn 0.000000 1.000000 0.000000
vn -1.000000 0.000000 0.000000
vn -1.000000 0.000000 0.000000
vn -1.000000 0.000000 0.000000
vn -1.000000 0.000000 0.000000
vn 1.000000 0.000000 0.000000
vn 1.000000 0.000000 0.000000
vn 1.000000 0.000000 -0.000000
vn 1.000000 0.000000 -0.000000
vn 0.000000 -0.988502 0.151207
vn 0.000000 -0.988502 0.151207
vn 0.000000 -0.994974 0.100134
vn 0.000000 -0.994974 0.100134
vn -1.000000 0.000000 -0.000000
vn -1.000000 0.000000 -0.000000
vn -1.000000 0.000000 0.000000
vn -1.000000 0.000000 0.000000
vn 0.000000 1.000000 0.000000
vn 0.000000 1.000000 0.000000
vn 0.000000 1.000000 0.000000
vn 0.000000 1.000000 0.000000
vn 1.000000 0.000000 -0.000000
vn 1.000000 0.000000 -0.000000
vn 1.000000 0.000000 -0.000000
vn 1.000000 0.000000 -0.000000
vn 0.000000 -0.950287 0.311375
vn 0.000000 -0.950287 0.311375
vn 0.000000 -0.976963 0.213411
vn 0.000000 -0.976963 0.213411
vn -1.000000 0.000000 0.000000
vn -1.000000 0.000000 0.000000
vn -1.000000 0.000000 -0.000000
vn -1.000000 0.000000 -0.000000
vn 0.000000 1.000000 0.000000
vn 0.000000 1.000000 0.000000
vn 0.000000 1.000000 0.000000
vn 0.000000 1.000000 0.000000
vn 1.000000 0.000000 -0.000000
vn 1.000000 0.000000 -0.000000
vn 1.000000 0.000000 -0.000000
vn 1.000000 0.000000 -0.000000
vn 0.000000 -0.824134 0.566395
vn 0.000000 -0.824134 0.566395
vn 0.000000 -0.916364 0.400347
vn 0.000000 -0.916364 0.400347
vn -1.000000 0.000000 -0.000000
vn -1.000000 0.000000 -0.000000
vn -1.000000 0.000000 -0.000000
vn -1.000000 0.000000 -0.000000
vn 0.000000 1.000000 0.000000
vn 0.000000 1.000000 0.000000
vn 0.000000 1.000000 0.000000
vn 0.000000 1.000000 0.000000
vn 1.000000 0.000000 -0.000000
vn 1.000000 0.000000 -0.000000
vn 0.000000 -0.998133 0.061072
vn 0.000000 -0.998133 0.061072
vn -1.000000 0.000000 0.000000
vn -1.000000 0.000000 0.000000
vn 0.000000 1.000000 0.000000
vn 0.000000 1.000000 0.000000
vn -0.000000 0.000000 -1.000000
vn -0.000000 0.000000 -1.000000
vn -0.000000 0.000000 -1.000000
vn -0.000000 0.000000 -1.000000
vn -0.000000 0.000000 -1.000000
vn -0.000000 0.000000 -1.000000
vn -0.000000 0.000000 -1.000000
vn -0.000000 0.000000 -1.000000
s off
g pCube5
usemtl initialShadingGroup
f 14/23/1 13/24/2 15/25/3 16/26/4
f 1/5/5 2/6/6 9/7/7 10/8/8
f 3/9/9 4/10/10 6/11/11 5/12/12
f 7/14/13 8/13/14 2/15/15 1/16/16
f 2/6/17 8/17/18 12/18/19 9/7/20
f 7/19/21 1/5/22 10/8/23 11/20/24
f 11/20/25 10/8/26 3/9/27 5/21/28
f 9/7/29 12/18/30 6/22/31 4/10/32
s 1
f 10/4/33 9/3/34 30/40/35 31/41/36
s 2
f 9/3/37 4/2/38 29/39/39 30/40/40
s 3
f 4/2/41 3/1/42 32/42/43 29/39/44
s 4
f 3/1/45 10/4/46 31/41/47 32/42/48
s 2
f 18/28/49 17/27/50 41/51/51 42/52/52
s 1
f 19/29/53 18/28/54 42/52/55 43/53/56
s 4
f 20/30/57 19/29/58 43/53/59 44/54/60
s 3
f 17/27/61 20/30/62 44/54/63 41/51/64
s 2
f 22/32/65 21/31/66 37/47/67 38/48/68
s 1
f 23/33/69 22/32/70 38/48/71 39/49/72
s 4
f 24/34/73 23/33/74 39/49/75 40/50/76
s 3
f 21/31/77 24/34/78 40/50/79 37/47/80
s 2
f 26/36/81 25/35/82 33/43/83 34/44/84
s 1
f 27/37/85 26/36/86 34/44/87 35/45/88
s 4
f 28/38/89 27/37/90 35/45/91 36/46/92
s 3
f 25/35/93 28/38/94 36/46/95 33/43/96
s 2
f 30/40/40 29/39/39 25/35/82 26/36/81
s 1
f 31/41/36 30/40/35 26/36/86 27/37/85
s 4
f 32/42/48 31/41/47 27/37/90 28/38/89
s 3
f 29/39/44 32/42/43 28/38/94 25/35/93
s 2
f 34/44/84 33/43/83 21/31/66 22/32/65
s 1
f 35/45/88 34/44/87 22/32/70 23/33/69
s 4
f 36/46/92 35/45/91 23/33/74 24/34/73
s 3
f 33/43/96 36/46/95 24/34/78 21/31/77
s 2
f 38/48/68 37/47/67 17/27/50 18/28/49
s 1
f 39/49/72 38/48/71 18/28/54 19/29/53
s 4
f 40/50/76 39/49/75 19/29/58 20/30/57
s 3
f 37/47/80 40/50/79 20/30/62 17/27/61
s 2
f 42/52/52 41/51/51 15/25/97 13/24/98
s 1
f 43/53/56 42/52/55 13/24/99 14/23/100
s 4
f 44/54/60 43/53/59 14/23/101 16/26/102
s 3
f 41/51/64 44/54/63 16/26/103 15/25/104
s off
f 12/55/105 8/56/106 7/57/107 11/58/108
f 6/59/109 12/60/110 11/61/111 5/62/112
