# This file uses centimeters as units for non-parametric coordinates.

mtllib bridge_rotate_1.mtl
g default
v 1.000000 -2.000000 0.511610
v 1.000000 -2.000000 -0.488390
v 1.000000 2.000000 0.511610
v 1.000000 2.000000 -0.488390
v 0.500000 2.000000 0.511610
v 0.500000 2.000000 -0.487444
v 0.500000 -2.000000 0.511610
v 0.500000 -2.000000 -0.487444
v 1.000000 -0.003593 -0.488390
v 1.000000 -0.003593 0.511610
v 0.500000 -0.003593 0.511610
v 0.500000 -0.003593 -0.488011
v 4.397631 1.624868 -0.488390
v 4.397631 1.624868 0.511610
v 4.397631 2.000000 -0.488390
v 4.397631 2.000000 0.511610
v 3.548223 2.000000 -0.488390
v 3.548223 1.539384 -0.488390
v 3.548223 1.539384 0.511610
v 3.548223 2.000000 0.511610
v 2.698815 2.000000 -0.488390
v 2.698815 1.353837 -0.488390
v 2.698815 1.353837 0.511610
v 2.698815 2.000000 0.511610
v 1.849408 2.000000 -0.488390
v 1.849408 0.982742 -0.488390
v 1.849408 0.982742 0.511610
v 1.849408 2.000000 0.511610
v 1.424704 2.000000 -0.488390
v 1.424704 0.606867 -0.488390
v 1.424704 0.606867 0.511610
v 1.424704 2.000000 0.511610
v 2.274111 2.000000 -0.488390
v 2.274111 1.190631 -0.488390
v 2.274111 1.190631 0.511610
v 2.274111 2.000000 0.511610
v 3.123519 2.000000 -0.488390
v 3.123519 1.468952 -0.488390
v 3.123519 1.468952 0.511610
v 3.123519 2.000000 0.511610
v 3.972927 2.000000 -0.488390
v 3.972927 1.598882 -0.488390
v 3.972927 1.598882 0.511610
v 3.972927 2.000000 0.511610
v -0.500000 -2.000000 1.011610
v 0.500000 -2.000000 1.011610
v -0.500000 2.000000 1.011610
v 0.500000 2.000000 1.011610
v -0.500000 2.000000 0.511610
v -0.500000 -2.000000 0.511610
v 0.500000 -0.003593 1.011610
v -0.500000 -0.003593 1.011610
v -0.500000 -0.003593 0.511610
v 0.500000 1.624868 4.409240
v -0.500000 1.624868 4.409240
v 0.500000 2.000000 4.409240
v -0.500000 2.000000 4.409240
v 0.500000 2.000000 3.559833
v 0.500000 1.539384 3.559833
v -0.500000 1.539384 3.559833
v -0.500000 2.000000 3.559833
v 0.500000 2.000000 2.710425
v 0.500000 1.353837 2.710425
v -0.500000 1.353837 2.710425
v -0.500000 2.000000 2.710425
v 0.500000 2.000000 1.861017
v 0.500000 0.982742 1.861017
v -0.500000 0.982742 1.861017
v -0.500000 2.000000 1.861017
v 0.500000 2.000000 1.436314
v 0.500000 0.606867 1.436314
v -0.500000 0.606867 1.436314
v -0.500000 2.000000 1.436314
v 0.500000 2.000000 2.285721
v 0.500000 1.190631 2.285721
v -0.500000 1.190631 2.285721
v -0.500000 2.000000 2.285721
v 0.500000 2.000000 3.135129
v 0.500000 1.468952 3.135129
v -0.500000 1.468952 3.135129
v -0.500000 2.000000 3.135129
v 0.500000 2.000000 3.984537
v 0.500000 1.598882 3.984537
v -0.500000 1.598882 3.984537
v -0.500000 2.000000 3.984537
v -0.500000 2.000000 -0.486497
v -0.500000 -0.003593 -0.486497
v -0.500000 -2.000000 -0.486497
vt 0.375000 0.250000
vt 0.625000 0.250000
vt 0.625000 0.175665
vt 0.375000 0.175665
vt 0.375000 0.000000
vt 0.625000 0.000000
vt 0.625000 0.175665
vt 0.375000 0.175665
vt 0.375000 0.250000
vt 0.625000 0.250000
vt 0.625000 0.500000
vt 0.375000 0.500000
vt 0.625000 0.750000
vt 0.375000 0.750000
vt 0.625000 1.000000
vt 0.375000 1.000000
vt 0.875000 0.000000
vt 0.875000 0.175665
vt 0.125000 0.000000
vt 0.125000 0.175665
vt 0.125000 0.250000
vt 0.875000 0.250000
vt 0.375000 0.175665
vt 0.625000 0.175665
vt 0.625000 0.250000
vt 0.375000 0.250000
vt 0.625000 0.250000
vt 0.625000 0.175665
vt 0.375000 0.175665
vt 0.375000 0.250000
vt 0.625000 0.250000
vt 0.625000 0.175665
vt 0.375000 0.175665
vt 0.375000 0.250000
vt 0.625000 0.250000
vt 0.625000 0.175665
vt 0.375000 0.175665
vt 0.375000 0.250000
vt 0.625000 0.250000
vt 0.625000 0.175665
vt 0.375000 0.175665
vt 0.375000 0.250000
vt 0.625000 0.250000
vt 0.625000 0.175665
vt 0.375000 0.175665
vt 0.375000 0.250000
vt 0.625000 0.250000
vt 0.625000 0.175665
vt 0.375000 0.175665
vt 0.375000 0.250000
vt 0.625000 0.250000
vt 0.625000 0.175665
vt 0.375000 0.175665
vt 0.375000 0.250000
vt 0.375000 0.175665
vt 0.625000 0.175665
vt 0.625000 0.250000
vt 0.375000 0.250000
vt 0.375000 0.000000
vt 0.625000 0.000000
vt 0.625000 0.175665
vt 0.375000 0.175665
vt 0.375000 0.250000
vt 0.625000 0.250000
vt 0.625000 0.500000
vt 0.375000 0.500000
vt 0.375000 0.750000
vt 0.625000 0.750000
vt 0.625000 1.000000
vt 0.375000 1.000000
vt 0.875000 0.000000
vt 0.875000 0.175665
vt 0.125000 0.000000
vt 0.125000 0.175665
vt 0.125000 0.250000
vt 0.875000 0.250000
vt 0.375000 0.175665
vt 0.625000 0.175665
vt 0.625000 0.175665
vt 0.375000 0.175665
vt 0.625000 0.250000
vt 0.625000 0.250000
vt 0.375000 0.250000
vt 0.375000 0.250000
vt 0.625000 0.175665
vt 0.625000 0.250000
vt 0.625000 0.250000
vt 0.625000 0.175665
vt 0.375000 0.175665
vt 0.375000 0.175665
vt 0.375000 0.250000
vt 0.375000 0.250000
vt 0.625000 0.175665
vt 0.625000 0.250000
vt 0.625000 0.250000
vt 0.625000 0.175665
vt 0.375000 0.175665
vt 0.375000 0.175665
vt 0.375000 0.250000
vt 0.375000 0.250000
vt 0.625000 0.175665
vt 0.625000 0.250000
vt 0.625000 0.250000
vt 0.625000 0.175665
vt 0.375000 0.175665
vt 0.375000 0.175665
vt 0.375000 0.250000
vt 0.375000 0.250000
vt 0.000000 0.000000
vt 1.000000 0.000000
vt 0.000000 0.500898
vt 1.000000 0.499102
vt 0.000000 0.499102
vt 0.000000 0.000000
vt 0.000000 0.000000
vt 1.000000 0.000000
vt 0.000000 0.500898
vt 1.000000 0.499102
vt 0.000000 0.499102
vt 0.000000 0.000000
vt 0.000000 0.000000
vt 0.499105 0.000000
vt 0.499105 1.000000
vt 0.000000 0.999999
vt 0.000000 0.000000
vt 0.500902 0.000000
vt 0.500901 0.999999
vt 0.000000 1.000000
vn 1.000000 0.000000 0.000000
vn 1.000000 0.000000 0.000000
vn 1.000000 0.000000 0.000000
vn 1.000000 0.000000 0.000000
vn 1.000000 0.000000 0.000000
vn 1.000000 0.000000 0.000000
vn 1.000000 0.000000 0.000000
vn 1.000000 0.000000 0.000000
vn 0.000000 1.000000 0.000000
vn 0.000000 1.000000 0.000000
vn 0.000000 1.000000 0.000000
vn 0.000000 1.000000 0.000000
vn 0.000000 -1.000000 0.000000
vn 0.000000 -1.000000 0.000000
vn 0.000000 -1.000000 0.000000
vn 0.000000 -1.000000 0.000000
vn -0.001325 -0.000142 -0.999999
vn -0.001325 -0.000142 -0.999999
vn -0.001325 -0.000142 -0.999999
vn -0.001325 -0.000142 -0.999999
vn 0.000000 0.000000 1.000000
vn 0.000000 0.000000 1.000000
vn 0.000000 0.000000 1.000000
vn 0.000000 0.000000 1.000000
vn 0.000000 0.000000 1.000000
vn 0.000000 0.000000 1.000000
vn 0.000000 0.000000 1.000000
vn 0.000000 0.000000 1.000000
vn -0.001325 0.000142 -0.999999
vn -0.001325 0.000142 -0.999999
vn -0.001325 0.000142 -0.999999
vn -0.001325 0.000142 -0.999999
vn 0.820882 -0.571097 0.000000
vn 0.820882 -0.571097 0.000000
vn 0.757745 -0.652551 0.000000
vn 0.757745 -0.652551 0.000000
vn 0.000000 0.000000 -1.000000
vn 0.000000 0.000000 -1.000000
vn 0.000000 0.000000 -1.000000
vn 0.000000 0.000000 -1.000000
vn 0.000000 1.000000 0.000000
vn 0.000000 1.000000 0.000000
vn 0.000000 1.000000 0.000000
vn 0.000000 1.000000 0.000000
vn 0.000000 0.000000 1.000000
vn 0.000000 0.000000 1.000000
vn 0.000000 0.000000 1.000000
vn 0.000000 0.000000 1.000000
vn 0.000000 0.000000 -1.000000
vn 0.000000 0.000000 -1.000000
vn -0.000000 0.000000 -1.000000
vn -0.000000 0.000000 -1.000000
vn 0.151207 -0.988502 0.000000
vn 0.151207 -0.988502 0.000000
vn 0.100134 -0.994974 0.000000
vn 0.100134 -0.994974 0.000000
vn -0.000000 0.000000 1.000000
vn -0.000000 0.000000 1.000000
vn 0.000000 0.000000 1.000000
vn 0.000000 0.000000 1.000000
vn 0.000000 1.000000 0.000000
vn 0.000000 1.000000 0.000000
vn 0.000000 1.000000 0.000000
vn 0.000000 1.000000 0.000000
vn -0.000000 0.000000 -1.000000
vn -0.000000 0.000000 -1.000000
vn 0.000000 0.000000 -1.000000
vn -0.000000 0.000000 -1.000000
vn 0.311375 -0.950287 0.000000
vn 0.311375 -0.950287 0.000000
vn 0.213411 -0.976963 0.000000
vn 0.213411 -0.976963 0.000000
vn 0.000000 0.000000 1.000000
vn 0.000000 0.000000 1.000000
vn -0.000000 0.000000 1.000000
vn -0.000000 0.000000 1.000000
vn 0.000000 1.000000 0.000000
vn 0.000000 1.000000 0.000000
vn 0.000000 1.000000 0.000000
vn 0.000000 1.000000 0.000000
vn -0.000000 0.000000 -1.000000
vn -0.000000 0.000000 -1.000000
vn 0.000000 0.000000 -1.000000
vn 0.000000 0.000000 -1.000000
vn 0.566395 -0.824134 0.000000
vn 0.566395 -0.824134 0.000000
vn 0.400347 -0.916364 0.000000
vn 0.400347 -0.916364 0.000000
vn -0.000000 0.000000 1.000000
vn -0.000000 0.000000 1.000000
vn -0.000000 0.000000 1.000000
vn -0.000000 0.000000 1.000000
vn 0.000000 1.000000 0.000000
vn 0.000000 1.000000 0.000000
vn 0.000000 1.000000 0.000000
vn 0.000000 1.000000 0.000000
vn -0.000000 0.000000 -1.000000
vn -0.000000 0.000000 -1.000000
vn 0.061072 -0.998133 0.000000
vn 0.061072 -0.998133 0.000000
vn 0.000000 0.000000 1.000000
vn 0.000000 0.000000 1.000000
vn 0.000000 1.000000 0.000000
vn 0.000000 1.000000 0.000000
vn 0.000000 0.000000 1.000000
vn 0.000000 0.000000 1.000000
vn 0.000000 0.000000 1.000000
vn 0.000000 0.000000 1.000000
vn 0.000000 0.000000 1.000000
vn 0.000000 0.000000 1.000000
vn 0.000000 0.000000 1.000000
vn 0.000000 0.000000 1.000000
vn 0.000000 1.000000 0.000000
vn 0.000000 1.000000 0.000000
vn 0.000000 1.000000 0.000000
vn 0.000000 1.000000 0.000000
vn 0.000000 -1.000000 0.000000
vn 0.000000 -1.000000 0.000000
vn 0.000000 -1.000000 0.000000
vn 0.000000 -1.000000 0.000000
vn 1.000000 0.000000 0.000000
vn 1.000000 0.000000 0.000000
vn 1.000000 0.000000 0.000000
vn 1.000000 0.000000 0.000000
vn -1.000000 0.000000 0.000000
vn -1.000000 0.000000 0.000000
vn -1.000000 0.000000 0.000000
vn -1.000000 0.000000 0.000000
vn -1.000000 0.000000 0.000000
vn -1.000000 0.000000 0.000000
vn -1.000000 0.000000 0.000000
vn -1.000000 0.000000 0.000000
vn 1.000000 0.000000 0.000000
vn 1.000000 0.000000 0.000000
vn 1.000000 0.000000 0.000000
vn 1.000000 0.000000 0.000000
vn 0.000000 -0.571097 0.820883
vn 0.000000 -0.571097 0.820883
vn 0.000000 -0.652551 0.757745
vn 0.000000 -0.652551 0.757745
vn 1.000000 0.000000 0.000000
vn 1.000000 0.000000 0.000000
vn 1.000000 0.000000 0.000000
vn 1.000000 0.000000 0.000000
vn 0.000000 1.000000 0.000000
vn 0.000000 1.000000 0.000000
vn 0.000000 1.000000 0.000000
vn 0.000000 1.000000 0.000000
vn -1.000000 0.000000 0.000000
vn -1.000000 0.000000 0.000000
vn -1.000000 0.000000 0.000000
vn -1.000000 0.000000 0.000000
vn 1.000000 0.000000 0.000000
vn 1.000000 0.000000 0.000000
vn 1.000000 0.000000 0.000000
vn 1.000000 0.000000 0.000000
vn 0.000000 -0.988502 0.151207
vn 0.000000 -0.988502 0.151207
vn 0.000000 -0.994974 0.100134
vn 0.000000 -0.994974 0.100134
vn -1.000000 0.000000 0.000000
vn -1.000000 0.000000 0.000000
vn -1.000000 0.000000 0.000000
vn -1.000000 0.000000 0.000000
vn 0.000000 1.000000 0.000000
vn 0.000000 1.000000 0.000000
vn 0.000000 1.000000 0.000000
vn 0.000000 1.000000 0.000000
vn 1.000000 0.000000 0.000000
vn 1.000000 0.000000 0.000000
vn 1.000000 0.000000 0.000000
vn 1.000000 0.000000 0.000000
vn 0.000000 -0.950287 0.311375
vn 0.000000 -0.950287 0.311375
vn 0.000000 -0.976963 0.213411
vn 0.000000 -0.976963 0.213411
vn -1.000000 0.000000 0.000000
vn -1.000000 0.000000 0.000000
vn -1.000000 0.000000 0.000000
vn -1.000000 0.000000 0.000000
vn 0.000000 1.000000 0.000000
vn 0.000000 1.000000 0.000000
vn 0.000000 1.000000 0.000000
vn 0.000000 1.000000 0.000000
vn 1.000000 0.000000 0.000000
vn 1.000000 0.000000 0.000000
vn 1.000000 0.000000 0.000000
vn 1.000000 0.000000 0.000000
vn 0.000000 -0.824134 0.566395
vn 0.000000 -0.824134 0.566395
vn 0.000000 -0.916364 0.400347
vn 0.000000 -0.916364 0.400347
vn -1.000000 0.000000 0.000000
vn -1.000000 0.000000 0.000000
vn -1.000000 0.000000 0.000000
vn -1.000000 0.000000 0.000000
vn 0.000000 1.000000 0.000000
vn 0.000000 1.000000 0.000000
vn 0.000000 1.000000 0.000000
vn 0.000000 1.000000 0.000000
vn 1.000000 0.000000 0.000000
vn 1.000000 0.000000 0.000000
vn 0.000000 -0.998133 0.061072
vn 0.000000 -0.998133 0.061072
vn -1.000000 0.000000 0.000000
vn -1.000000 0.000000 0.000000
vn 0.000000 1.000000 0.000000
vn 0.000000 1.000000 0.000000
vn 0.000000 1.000000 0.000000
vn 0.000000 1.000000 0.000000
vn -1.000000 0.000000 0.000000
vn -1.000000 0.000000 0.000000
vn 0.000000 -1.000000 0.000000
vn 0.000000 -1.000000 0.000000
vn -1.000000 0.000000 0.000000
vn -1.000000 0.000000 0.000000
vn -0.001230 0.000142 -0.999999
vn -0.001230 0.000142 -0.999999
vn -0.001230 0.000142 -0.999999
vn -0.001230 0.000142 -0.999999
vn -0.001230 -0.000142 -0.999999
vn -0.001230 -0.000142 -0.999999
vn -0.001230 -0.000142 -0.999999
vn -0.001230 -0.000142 -0.999999
s off
g pCube5
usemtl initialShadingGroup
f 14/23/1 13/24/2 15/25/3 16/26/4
f 1/5/5 2/6/6 9/7/7 10/8/8
f 3/9/9 4/10/10 6/11/11 5/12/12
f 7/14/13 8/13/14 2/15/15 1/16/16
f 2/6/17 8/17/18 12/18/19 9/7/20
f 7/19/21 1/5/22 10/8/23 11/20/24
f 11/20/25 10/8/26 3/9/27 5/21/28
f 9/7/29 12/18/30 6/22/31 4/10/32
s 1
f 10/4/33 9/3/34 30/40/35 31/41/36
s 2
f 9/3/37 4/2/38 29/39/39 30/40/40
s 3
f 4/2/41 3/1/42 32/42/43 29/39/44
s 4
f 3/1/45 10/4/46 31/41/47 32/42/48
s 2
f 18/28/49 17/27/50 41/51/51 42/52/52
s 1
f 19/29/53 18/28/54 42/52/55 43/53/56
s 4
f 20/30/57 19/29/58 43/53/59 44/54/60
s 3
f 17/27/61 20/30/62 44/54/63 41/51/64
s 2
f 22/32/65 21/31/66 37/47/67 38/48/68
s 1
f 23/33/69 22/32/70 38/48/71 39/49/72
s 4
f 24/34/73 23/33/74 39/49/75 40/50/76
s 3
f 21/31/77 24/34/78 40/50/79 37/47/80
s 2
f 26/36/81 25/35/82 33/43/83 34/44/84
s 1
f 27/37/85 26/36/86 34/44/87 35/45/88
s 4
f 28/38/89 27/37/90 35/45/91 36/46/92
s 3
f 25/35/93 28/38/94 36/46/95 33/43/96
s 2
f 30/40/40 29/39/39 25/35/82 26/36/81
s 1
f 31/41/36 30/40/35 26/36/86 27/37/85
s 4
f 32/42/48 31/41/47 27/37/90 28/38/89
s 3
f 29/39/44 32/42/43 28/38/94 25/35/93
s 2
f 34/44/84 33/43/83 21/31/66 22/32/65
s 1
f 35/45/88 34/44/87 22/32/70 23/33/69
s 4
f 36/46/92 35/45/91 23/33/74 24/34/73
s 3
f 33/43/96 36/46/95 24/34/78 21/31/77
s 2
f 38/48/68 37/47/67 17/27/50 18/28/49
s 1
f 39/49/72 38/48/71 18/28/54 19/29/53
s 4
f 40/50/76 39/49/75 19/29/58 20/30/57
s 3
f 37/47/80 40/50/79 20/30/62 17/27/61
s 2
f 42/52/52 41/51/51 15/25/97 13/24/98
s 1
f 43/53/56 42/52/55 13/24/99 14/23/100
s 4
f 44/54/60 43/53/59 14/23/101 16/26/102
s 3
f 41/51/64 44/54/63 16/26/103 15/25/104
s off
f 55/55/105 54/56/106 56/57/107 57/58/108
f 45/59/109 46/60/110 51/61/111 52/62/112
s 13
f 47/63/113 48/64/114 5/65/115 49/66/116
s 14
f 50/67/117 7/68/118 46/69/119 45/70/120
s off
f 46/60/121 7/71/122 11/72/123 51/61/124
s 15
f 50/73/125 45/59/126 52/62/127 53/74/128
s 16
f 53/74/129 52/62/130 47/63/131 49/75/132
s off
f 51/61/133 11/72/134 5/76/135 48/64/136
s 17
f 52/77/137 51/78/138 71/79/139 72/80/140
s 18
f 51/78/141 48/81/142 70/82/143 71/79/144
s 19
f 48/81/145 47/83/146 73/84/147 70/82/148
s 20
f 47/83/149 52/77/150 72/80/151 73/84/152
s 18
f 59/85/153 58/86/154 82/87/155 83/88/156
s 17
f 60/89/157 59/85/158 83/88/159 84/90/160
s 20
f 61/91/161 60/89/162 84/90/163 85/92/164
s 19
f 58/86/165 61/91/166 85/92/167 82/87/168
s 18
f 63/93/169 62/94/170 78/95/171 79/96/172
s 17
f 64/97/173 63/93/174 79/96/175 80/98/176
s 20
f 65/99/177 64/97/178 80/98/179 81/100/180
s 19
f 62/94/181 65/99/182 81/100/183 78/95/184
s 18
f 67/101/185 66/102/186 74/103/187 75/104/188
s 17
f 68/105/189 67/101/190 75/104/191 76/106/192
s 20
f 69/107/193 68/105/194 76/106/195 77/108/196
s 19
f 66/102/197 69/107/198 77/108/199 74/103/200
s 18
f 71/79/144 70/82/143 66/102/186 67/101/185
s 17
f 72/80/140 71/79/139 67/101/190 68/105/189
s 20
f 73/84/152 72/80/151 68/105/194 69/107/193
s 19
f 70/82/148 73/84/147 69/107/198 66/102/197
s 18
f 75/104/188 74/103/187 62/94/170 63/93/169
s 17
f 76/106/192 75/104/191 63/93/174 64/97/173
s 20
f 77/108/196 76/106/195 64/97/178 65/99/177
s 19
f 74/103/200 77/108/199 65/99/182 62/94/181
s 18
f 79/96/172 78/95/171 58/86/154 59/85/153
s 17
f 80/98/176 79/96/175 59/85/158 60/89/157
s 20
f 81/100/180 80/98/179 60/89/162 61/91/161
s 19
f 78/95/184 81/100/183 61/91/166 58/86/165
s 18
f 83/88/156 82/87/155 56/57/201 54/56/202
s 17
f 84/90/160 83/88/159 54/56/203 55/55/204
s 20
f 85/92/164 84/90/163 55/55/205 57/58/206
s 19
f 82/87/168 85/92/167 57/58/207 56/57/208
s 13
f 49/115/116 5/116/115 6/110/209 86/109/210
s 16
f 53/117/129 49/115/132 86/109/211 87/111/212
s 14
f 7/118/118 50/119/117 88/113/213 8/112/214
s 15
f 50/119/125 53/120/128 87/114/215 88/113/216
s off
f 86/121/217 6/122/218 12/123/219 87/124/220
f 87/125/221 12/126/222 8/127/223 88/128/224
